{
  "config": {
    "host": "http://localhost:8013"
  },
  "listLocation": {
    "parameters": {
      "accountSid": "SA3cacf5fc6e024b39823a3f31f7eb096b",
      "limit": 1,
      "offset": 1
    },
    "response": {
      "valid": {
        "total": 3,
        "first": "http://localhost:8013/v1/accounts/PA3cacf5fc6e024b39823a3f31f7eb096b/locations?limit=1",
        "next": "http://localhost:8013/v1/accounts/PA3cacf5fc6e024b39823a3f31f7eb096b/locations?limit=1&offset=2",
        "prev": "http://localhost:8013/v1/accounts/PA3cacf5fc6e024b39823a3f31f7eb096b/locations?limit=1&offset=0",
        "last": "http://localhost:8013/v1/accounts/PA3cacf5fc6e024b39823a3f31f7eb096b/locations?limit=1&offset=2",
        "count": 1,
        "offset": 1,
        "results": [
          {
            "sid": "SL3cacf5fc6e024b39823a3f31f7eb096a",
            "title": "string",
            "externalId": "string",
            "schedulingAccountSid": "PA3cacf5fc6e024b39823a3f31f7eb096b",
            "seatManagement": "basic",
            "createdDate": "2018-09-26T11:34:38.896Z",
            "lastModifiedDate": "2018-09-26T11:34:38.896Z",
            "systemModstamp": "2018-09-26T11:34:38.896Z"
          }
        ]
      },
      "fail": {
        "code": "1201",
        "message": "Account not found for 'SA3cacf5fc6e024b39823a3f31f7eb096c'",
        "status": 404
      }
    }
  }
}
